TP: ggplot
…
Ajouter une colonne pour la surface terrière ;

Sélectionner les colonnes contenant le nom de l’espèce, la position et la surface terrière

Bagarre

paracou6 |> 
  filter(Genus == "Eperua") |> 
  mutate(G = (CircCorr / 2 / pi)^2 * pi / 10000 ) |> 
  select(Xfield, Yfield, spName, G) |> 
  print() ->
  paracou6_wapa

## # A tibble: 333 × 4
##   Xfield Yfield spName              G
##    <dbl>  <dbl> <chr>           <dbl>
## 1    0.5    190 Eperua falcata 0.0472
## 2    2.5    206 Eperua falcata 0.222 
## 3    9      222 Eperua falcata 0.141 
## 4    7      226 Eperua falcata 0.121 
## 5    4      247 Eperua falcata 0.179 
## # ℹ 328 more rows
…
